The OES Guide to Making and Evaluating Matched Designs (DRAFT!!)
…
The balanceTest approach compares the strata-weighted average of within-strata differences to that which would be expected if we were to repeat an experiment with the same stratified design and same covariate values (and balanceTest uses a large sample Normal approximation to this distribution.)

setmeanDiffs <- dat %>%
  group_by(fm1) %>%
  summarise(
    diffage = mean(age[trtbin == 1]) - mean(age[trtbin == 0]),
    nb = n(),
    nTb = sum(trtbin),
    nCb = sum(1 - trtbin),
    hwt = (2 * (nCb * nTb) / (nTb + nCb))
  )
setmeanDiffs

# A tibble: 334 × 6
   fm1   diffage    nb   nTb   nCb   hwt
   <fct>   <dbl> <int> <dbl> <dbl> <dbl>
 1 1.1      5.81     2     1     1  1   
 2 1.10     1.96     2     1     1  1   
 3 1.100    6.18     3     1     2  1.33
 4 1.101   12.6      2     1     1  1   
 5 1.102    8.38     2     1     1  1   
 6 1.103   12.5      4     1     3  1.5 
 7 1.104   11.5      2     1     1  1   
 8 1.105   -4.70     5     1     4  1.6 
 9 1.106   10.5      2     1     1  1   
10 1.107    2.12     2     1     1  1   
# ℹ 324 more rows
…
